Explore WES VQSR VCF
…
Extract meta and fixed

# Get data from header and fixed columns
meta_fix <- vcfR2tidy(vcfr, info_only=T)
    
# Get data frame with meta-information from vcf header
meta.df <- meta_fix$meta
dim(meta.df)

## [1] 29  5

meta.df

## # A tibble: 29 x 5
##    Tag   ID              Number Type    Description                                                                                                                                                        
##    <chr> <chr>           <chr>  <chr>   <chr>                                                                                                                                                              
##  1 INFO  AC              A      Integer Allele count in genotypes, for each ALT allele, in the same order as listed                                                                                        
##  2 INFO  AF              A      Float   Allele Frequency, for each ALT allele, in the same order as listed                                                                                                 
##  3 INFO  AN              1      Integer Total number of alleles in called genotypes                                                                                                                        
##  4 INFO  AS_FilterStatus A      String  Filter status for each allele, as assessed by ApplyRecalibration. Note that the VCF filter field will reflect the most lenient/sensitive status across all alleles.
##  5 INFO  AS_VQSLOD       A      String  For each alt allele, the log odds of being a true variant versus being false under the trained gaussian mixture model                                              
##  6 INFO  AS_culprit      A      String  For each alt allele, the annotation which was the worst performing in the Gaussian mixture model, likely the reason why the variant was filtered out               
##  7 INFO  BaseQRankSum    1      Float   Z-score from Wilcoxon rank sum test of Alt Vs. Ref base qualities                                                                                                  
##  8 INFO  ClippingRankSum 1      Float   Z-score From Wilcoxon rank sum test of Alt vs. Ref number of hard clipped bases                                                                                    
##  9 INFO  DP              1      Integer Approximate read depth; some reads may have been filtered                                                                                                          
## 10 INFO  DS              0      Flag    Were any of the samples downsampled?                                                                                                                               
## #  with 19 more rows
…
